Dungeons and Dragons: monsters
…
supmodelfinal %>% 
  collect_metrics()

## # A tibble: 2 × 4
##   .metric .estimator .estimate .config        
##   <chr>   <chr>          <dbl> <chr>          
## 1 rmse    standard       1.00  pre0_mod0_post0
## 2 rsq     standard       0.965 pre0_mod0_post0

supmodel2_pred <- supmodel2 %>% 
  collect_predictions()
supmodel2_pred

## # A tibble: 85 × 5
##    .pred id                   cr  .row .config        
##    <dbl> <chr>             <dbl> <int> <chr>          
##  1  5.51 train/test split  1         3 pre0_mod0_post0
##  2  3.85 train/test split  2         6 pre0_mod0_post0
##  3  7.10 train/test split  2        11 pre0_mod0_post0
##  4 12.6  train/test split 19        12 pre0_mod0_post0
##  5  1.78 train/test split  0.125    13 pre0_mod0_post0
##  6  4.67 train/test split  3        16 pre0_mod0_post0
##  7  4.36 train/test split  3        17 pre0_mod0_post0
##  8  8.41 train/test split 11        18 pre0_mod0_post0
##  9 12.0  train/test split 14        22 pre0_mod0_post0
## 10 12.2  train/test split 16        28 pre0_mod0_post0
## # ℹ 75 more rows
…
